127.0.0.1 - - [07/Jan/2024:11:56:36 +0530] "GET / HTTP/1.1" 404 751
0:0:0:0:0:0:0:1 - - [07/Jan/2024:11:56:37 +0530] "GET /EmpWebProject/Login.html HTTP/1.1" 200 616
0:0:0:0:0:0:0:1 - - [07/Jan/2024:11:56:37 +0530] "GET /favicon.ico HTTP/1.1" 404 762
0:0:0:0:0:0:0:1 - - [07/Jan/2024:11:56:52 +0530] "GET /EmpWebProject/LoginServlet?emailId=HR&password=HR HTTP/1.1" 200 330
0:0:0:0:0:0:0:1 - - [07/Jan/2024:11:56:57 +0530] "GET /EmpWebProject/GetAllEmps HTTP/1.1" 200 897
0:0:0:0:0:0:0:1 - - [07/Jan/2024:11:56:59 +0530] "GET /EmpWebProject/GetEmpById.html HTTP/1.1" 200 394
0:0:0:0:0:0:0:1 - - [07/Jan/2024:11:57:04 +0530] "POST /EmpWebProject/GetEmpById HTTP/1.1" 200 585
0:0:0:0:0:0:0:1 - - [07/Jan/2024:11:57:08 +0530] "GET /EmpWebProject/LogOut HTTP/1.1" 200 616
