127.0.0.1 - - [04/Jan/2024:00:09:24 +0530] "GET / HTTP/1.1" 404 751
0:0:0:0:0:0:0:1 - - [04/Jan/2024:00:09:25 +0530] "GET /Webproject1/hii.html HTTP/1.1" 200 168
0:0:0:0:0:0:0:1 - - [04/Jan/2024:00:09:27 +0530] "GET /Webproject1/Hiiservelet HTTP/1.1" 404 778
127.0.0.1 - - [04/Jan/2024:00:10:16 +0530] "GET / HTTP/1.1" 404 751
0:0:0:0:0:0:0:1 - - [04/Jan/2024:00:10:16 +0530] "GET /Webproject1/hii.html HTTP/1.1" 200 167
0:0:0:0:0:0:0:1 - - [04/Jan/2024:00:10:19 +0530] "GET /Webproject1/Hiiservelt HTTP/1.1" 200 -
127.0.0.1 - - [04/Jan/2024:00:18:58 +0530] "GET / HTTP/1.1" 404 751
0:0:0:0:0:0:0:1 - - [04/Jan/2024:00:18:59 +0530] "GET /Webproject1/hii.html HTTP/1.1" 200 252
0:0:0:0:0:0:0:1 - - [04/Jan/2024:00:19:02 +0530] "GET /Webproject1/Hiiservelt HTTP/1.1" 200 -
0:0:0:0:0:0:0:1 - - [04/Jan/2024:00:19:06 +0530] "GET /Webproject1/Helloservelt HTTP/1.1" 200 -
0:0:0:0:0:0:0:1 - - [04/Jan/2024:00:19:10 +0530] "GET /Webproject1/Dummyservelt HTTP/1.1" 404 779
0:0:0:0:0:0:0:1 - - [04/Jan/2024:00:19:58 +0530] "GET /Webproject1/Hiiservelt HTTP/1.1" 200 -
0:0:0:0:0:0:0:1 - - [04/Jan/2024:00:20:03 +0530] "GET /Webproject1/Helloservelt HTTP/1.1" 200 -
0:0:0:0:0:0:0:1 - - [04/Jan/2024:00:20:07 +0530] "GET /Webproject1/Dummyservelt HTTP/1.1" 404 779
0:0:0:0:0:0:0:1 - - [04/Jan/2024:00:20:13 +0530] "GET /Webproject1/Dummyservelt HTTP/1.1" 404 779
127.0.0.1 - - [04/Jan/2024:00:21:32 +0530] "GET / HTTP/1.1" 404 751
0:0:0:0:0:0:0:1 - - [04/Jan/2024:00:21:33 +0530] "GET /Webproject1/hii.html HTTP/1.1" 200 252
0:0:0:0:0:0:0:1 - - [04/Jan/2024:00:21:36 +0530] "GET /Webproject1/Hiiservelt HTTP/1.1" 200 -
0:0:0:0:0:0:0:1 - - [04/Jan/2024:00:21:39 +0530] "GET /Webproject1/Helloservelt HTTP/1.1" 200 -
0:0:0:0:0:0:0:1 - - [04/Jan/2024:00:21:43 +0530] "GET /Webproject1/Dummyservlet HTTP/1.1" 200 -
0:0:0:0:0:0:0:1 - - [04/Jan/2024:00:21:54 +0530] "GET /Webproject1/Dummyservlet HTTP/1.1" 200 -
0:0:0:0:0:0:0:1 - - [04/Jan/2024:00:21:59 +0530] "GET /Webproject1/Hiiservelt HTTP/1.1" 200 -
0:0:0:0:0:0:0:1 - - [04/Jan/2024:00:22:03 +0530] "GET /Webproject1/Helloservelt HTTP/1.1" 200 -
0:0:0:0:0:0:0:1 - - [04/Jan/2024:00:22:06 +0530] "GET /Webproject1/Dummyservlet HTTP/1.1" 200 -
